[gd_scene load_steps=5 format=2]

[ext_resource path="res://Demo.gd" type="Script" id=1]
[ext_resource path="res://addons/diagraph/editor/DiagraphEditor.tscn" type="PackedScene" id=2]
[ext_resource path="res://addons/diagraph/resources/theme.tres" type="Theme" id=3]

[sub_resource type="StyleBoxFlat" id=1]
bg_color = Color( 0.14902, 0.172549, 0.231373, 1 )

[node name="Demo" type="CanvasLayer"]
script = ExtResource( 1 )

[node name="HSplitContainer" type="HSplitContainer" parent="."]
self_modulate = Color( 1, 0, 0, 1 )
anchor_right = 1.0
anchor_bottom = 1.0
theme = ExtResource( 3 )
custom_constants/autohide = 0
split_offset = -175

[node name="VSplitContainer" type="VSplitContainer" parent="HSplitContainer"]
margin_right = 1417.0
margin_bottom = 900.0
size_flags_horizontal = 3

[node name="DiagraphEditor" parent="HSplitContainer/VSplitContainer" instance=ExtResource( 2 )]
anchor_right = 0.0
anchor_bottom = 0.0
margin_left = 0.0
margin_top = 0.0
margin_right = 1417.0
margin_bottom = 900.0
position = "demo"

[node name="Control" type="Control" parent="HSplitContainer"]
margin_left = 1425.0
margin_right = 1600.0
margin_bottom = 900.0

[node name="Panel" type="Panel" parent="HSplitContainer/Control"]
modulate = Color( 0.537255, 0.537255, 0.537255, 1 )
anchor_right = 1.0
anchor_bottom = 1.0
custom_styles/panel = SubResource( 1 )
__meta__ = {
"_edit_use_anchors_": false
}

[node name="VBoxContainer" type="VBoxContainer" parent="HSplitContainer/Control"]
anchor_right = 1.0
anchor_bottom = 1.0
margin_left = 3.0
margin_right = -3.0
__meta__ = {
"_edit_use_anchors_": false
}

[node name="Control3" type="Control" parent="HSplitContainer/Control/VBoxContainer"]
margin_right = 169.0

[node name="Label" type="Label" parent="HSplitContainer/Control/VBoxContainer"]
margin_top = 4.0
margin_right = 169.0
margin_bottom = 31.0
hint_tooltip = "These variables can be referenced inside your dialogues or in Branch nodes or Choice Conditions."
mouse_filter = 1
size_flags_horizontal = 3
text = "Game Variables:"
autowrap = true

[node name="HSeparator" type="HSeparator" parent="HSplitContainer/Control/VBoxContainer"]
margin_top = 35.0
margin_right = 169.0
margin_bottom = 39.0

[node name="ScrollContainer" type="ScrollContainer" parent="HSplitContainer/Control/VBoxContainer"]
margin_top = 43.0
margin_right = 169.0
margin_bottom = 854.0
size_flags_vertical = 3

[node name="DictBox" type="VBoxContainer" parent="HSplitContainer/Control/VBoxContainer/ScrollContainer"]
size_flags_horizontal = 3
size_flags_vertical = 3

[node name="DictEntry" type="HBoxContainer" parent="HSplitContainer/Control/VBoxContainer/ScrollContainer/DictBox"]
visible = false
margin_right = 150.0
margin_bottom = 25.0
size_flags_horizontal = 3

[node name="DictKey" type="LineEdit" parent="HSplitContainer/Control/VBoxContainer/ScrollContainer/DictBox/DictEntry"]
margin_right = 73.0
margin_bottom = 25.0
size_flags_horizontal = 3
editable = false
placeholder_text = "Key"

[node name="DictValue" type="LineEdit" parent="HSplitContainer/Control/VBoxContainer/ScrollContainer/DictBox/DictEntry"]
margin_left = 77.0
margin_right = 150.0
margin_bottom = 25.0
size_flags_horizontal = 3
placeholder_text = "Value"

[node name="HSeparator2" type="HSeparator" parent="HSplitContainer/Control/VBoxContainer"]
margin_top = 858.0
margin_right = 169.0
margin_bottom = 862.0

[node name="Control" type="Control" parent="HSplitContainer/Control/VBoxContainer"]
margin_top = 866.0
margin_right = 169.0
margin_bottom = 896.0
rect_min_size = Vector2( 0, 30 )
size_flags_horizontal = 3

[node name="HBoxContainer" type="HBoxContainer" parent="HSplitContainer/Control/VBoxContainer/Control"]
anchor_right = 1.0
anchor_bottom = 1.0
margin_bottom = -3.0
__meta__ = {
"_edit_use_anchors_": false
}

[node name="Key" type="LineEdit" parent="HSplitContainer/Control/VBoxContainer/Control/HBoxContainer"]
margin_right = 132.0
margin_bottom = 27.0
size_flags_horizontal = 3
placeholder_text = "Key"

[node name="Value" type="LineEdit" parent="HSplitContainer/Control/VBoxContainer/Control/HBoxContainer"]
margin_left = 136.0
margin_right = 268.0
margin_bottom = 27.0
size_flags_horizontal = 3
placeholder_text = "Value"

[node name="Add" type="Button" parent="HSplitContainer/Control/VBoxContainer/Control/HBoxContainer"]
margin_left = 272.0
margin_right = 314.0
margin_bottom = 27.0
size_flags_horizontal = 3
size_flags_stretch_ratio = 0.5
disabled = true
text = "Add"

[node name="Control2" type="Control" parent="HSplitContainer/Control/VBoxContainer"]
margin_top = 900.0
margin_right = 169.0
margin_bottom = 900.0
